@startuml
sprite $apple [48x48/16] {
000000000000000000000000000000000000000000000000
00000000000000000000000000000017B800000000000000
000000000000000000000000000019FFF900000000000000
0000000000000000000000000004EFFFF800000000000000
000000000000000000000000004FFFFFF400000000000000
00000000000000000000000001EFFFFFE000000000000000
0000000000000000000000000BFFFFFF7000000000000000
0000000000000000000000003FFFFFFD0000000000000000
0000000000000000000000009FFFFFE20000000000000000
000000000000000000000000DFFFFE300000000000000000
000000000000000000000000FFFFC1000000000000000000
000000000000000000000000FEA400000000000000000000
00000000000027BDEDA61000000038CFFFEB610000000000
00000000002AFFFFFFFFFA50027DFFFFFFFFFF9100000000
0000000005FFFFFFFFFFFFFFEFFFFFFFFFFFFFFE30000000
000000007FFFFFFFFFFFFFFFFFFFFFFFFFFFFFFFF3000000
00000005FFFFFFFFFFFFFFFFFFFFFFFFFFFFFFFFFC000000
0000001EFFFFFFFFFFFFFFFFFFFFFFFFFFFFFFFFA0000000
0000009FFFFFFFFFFFFFFFFFFFFFFFFFFFFFFFF800000000
000001FFFFFFFFFFFFFFFFFFFFFFFFFFFFFFFFB000000000
000007FFFFFFFFFFFFFFFFFFFFFFFFFFFFFFFF1000000000
00000CFFFFFFFFFFFFFFFFFFFFFFFFFFFFFFF90000000000
00000FFFFFFFFFFFFFFFFFFFFFFFFFFFFFFFF40000000000
00002FFFFFFFFFFFFFFFFFFFFFFFFFFFFFFFF00000000000
00003FFFFFFFFFFFFFFFFFFFFFFFFFFFFFFFF00000000000
00004FFFFFFFFFFFFFFFFFFFFFFFFFFFFFFFE00000000000
00004FFFFFFFFFFFFFFFFFFFFFFFFFFFFFFFF00000000000
00003FFFFFFFFFFFFFFFFFFFFFFFFFFFFFFFF20000000000
00001FFFFFFFFFFFFFFFFFFFFFFFFFFFFFFFF70000000000
00000FFFFFFFFFFFFFFFFFFFFFFFFFFFFFFFFD0000000000
00000CFFFFFFFFFFFFFFFFFFFFFFFFFFFFFFFF6000000000
000008FFFFFFFFFFFFFFFFFFFFFFFFFFFFFFFFF200000000
000004FFFFFFFFFFFFFFFFFFFFFFFFFFFFFFFFFE20000000
000000FFFFFFFFFFFFFFFFFFFFFFFFFFFFFFFFFFE4000000
000000AFFFFFFFFFFFFFFFFFFFFFFFFFFFFFFFFFFFB10000
0000004FFFFFFFFFFFFFFFFFFFFFFFFFFFFFFFFFFFE00000
0000000DFFFFFFFFFFFFFFFFFFFFFFFFFFFFFFFFFF900000
00000006FFFFFFFFFFFFFFFFFFFFFFFFFFFFFFFFFF200000
00000000DFFFFFFFFFFFFFFFFFFFFFFFFFFFFFFFFA000000
000000004FFFFFFFFFFFFFFFFFFFFFFFFFFFFFFFF1000000
000000000AFFFFFFFFFFFFFFFFFFFFFFFFFFFFFF70000000
0000000001EFFFFFFFFFFFFFFFFFFFFFFFFFFFFC00000000
00000000003FFFFFFFFFFFFFFFFFFFFFFFFFFFE100000000
000000000006FFFFFFFFFFFFFFFFFFFFFFFFFF4000000000
0000000000008FFFFFFFFFFFFFFFFFFFFFFFF60000000000
00000000000006FFFFFFFA520026BFFFFFFE500000000000
0000000000000029DDA610000000017BCB71000000000000
000000000000000000000000000000000000000000000000
}
@enduml
